{
  "iisSettings": {
    "windowsAuthentication": false,
    "anonymousAuthentication": true,
    "iisExpress": {
      "applicationUrl": "https://localhost:5001",
      "sslPort": 50001
    }
  },
  "profiles": {
    "self hosting": {
      "commandName": "Project",
      "environmentVariables": {
        "MTT_ALLOW_ORIGIN": "http://localhost:5000",
        "ASPNETCORE_ENVIRONMENT": "Development"
      },
      "applicationUrl": "https://localhost:5001"
    },
    "local-mongo": {
      "commandName": "Project",
      "commandLineArgs": "--launch-profile local-mongo",
      "environmentVariables": {
        "MTT_MONGODB_CONNECTIONSTRING": "mongodb://admin:abc123!@localhost",
        "MTT_MONGODB_DATABASENAME": "mythictable",
        "MTT_GCP_CREDENTIAL_FILE": "C:\\projects\\mythictable\\server\\src\\mythictable\\.ops\\mythic-table-api.json",
        "MTT_GCP_BUCKET_IMAGES": "mythic-table-image-store-edge",
        "MTT_USE_GCP_IMAGE_STORE": "true",
        "MTT_ALLOW_ORIGIN": "http://localhost:5000",
        "ASPNETCORE_ENVIRONMENT": "Development"
      },
      "applicationUrl": "https://localhost:5001"
    }
  }
}